최저임금 인상이 물가에 미치는 영향
…
dat1<-inner_join(price1 ,gdp1, by="quarter")
dat1 <- dplyr::select(dat1, quarter,price,gdp)

dat2 <- inner_join(rent1,wage1,by="quarter")
dat2 <- dat2 %>% mutate(quarter = gsub("년"," ",dat2$quarter))
dat2 <- dat2 %>% mutate(quarter = gsub("분기","/4",dat2$quarter))

dat2 <- dplyr::select(dat2, quarter,rent,wage)

dat3 <- left_join(dat1,dat2,by="quarter")
dat3 

## # A tibble: 38 x 5
##     quarter price   gdp       rent  wage
##       <chr> <dbl> <dbl>      <dbl> <dbl>
##  1 2009 1/4   3.9   4.0  0.5474453  6.10
##  2 2009 2/4   2.8   4.0  0.9074410  6.10
##  3 2009 3/4   2.0   3.7  0.1798561  6.10
##  4 2009 4/4   2.4   2.5  0.8976661  6.10
##  5 2010 1/4   3.0   3.2  1.6014235  2.75
##  6 2010 2/4   2.7   3.1  5.2539405  2.75
##  7 2010 3/4   2.9   3.0 -0.1663894  2.75
##  8 2010 4/4   3.2   3.4  0.5000000  2.75
##  9 2011 1/4   3.8   2.0  0.9950249  5.10
## 10 2011 2/4   4.0   1.0  0.8210181  5.10
## # ... with 28 more rows
…
