MidtermTest_유학생분석
…
3) 국가별 남녀 유학생 현황

국가, 성별로 그룹을 만든 뒤 비자별 유학생 수를 모두 더한 총유학생 수를 구하기

library(dplyr)

data <- stu2 %>% 
  group_by(nation, gender) %>% 
  mutate(sum_all = sum(college+univ+master+doctorate+research+exchange+jobstudy+short+language+foreignLang)) %>% select(nation, gender, sum_all) %>% 
  arrange(desc(sum_all)) %>% 
  head(30)

data

## # A tibble: 30 x 3
## # Groups:   nation, gender [30]
##    nation       gender sum_all
##    <fct>        <fct>    <dbl>
##  1 중      국   여       40595
##  2 중      국   남       26079
##  3 베  트  남   남       14078
##  4 베  트  남   여       13485
##  5 몽      골   여        5022
##  6 우즈베키스탄 남        4038
##  7 몽      골   남        2762
##  8 일      본   여        2057
##  9 파 키 스 탄  남        1259
## 10 (타  이  완) 여        1065
## # ... with 20 more rows
…
library(dplyr)

#여학생만 추출 
vi_fem <- stu2 %>% 
  group_by(nation, gender) %>% 
  filter(gender == '여') %>% 
  mutate(D2 = sum(college:short),
         D4 = sum(language, foreignLang)) %>% 
  select(D2, D4)

## Adding missing grouping variables: `nation`, `gender`

vi_fem

## # A tibble: 177 x 4
## # Groups:   nation, gender [177]
##    nation        gender     D2    D4
##    <fct>         <fct>   <int> <dbl>
##  1 한국계 중국인 여         10    42
##  2 중      국    여     108188  7824
##  3 베  트  남    여      51004  9890
##  4 태      국    여          3   152
##  5 우즈베키스탄  여         66   235
##  6 필  리  핀    여         20    81
##  7 일      본    여        735   661
##  8 캄 보 디 아   여          3    38
##  9 몽      골    여       1891  2591
## 10 인도네시아    여         84   141
## # ... with 167 more rows

#남학생만 추출
vi_male <- stu2 %>% 
  group_by(nation, gender) %>% 
  filter(gender == '남') %>% 
  mutate(D2 = sum(college:short),
         D4 = sum(language, foreignLang)) %>% 
  select(D2, D4)

## Adding missing grouping variables: `nation`, `gender`

vi_male

## # A tibble: 177 x 4
## # Groups:   nation, gender [177]
##    nation        gender     D2    D4
##    <fct>         <fct>   <int> <dbl>
##  1 한국계 중국인 남         36    68
##  2 중      국    남     149322  7032
##  3 베  트  남    남     114957 11087
##  4 태      국    남          0    29
##  5 우즈베키스탄  남       2035  2170
##  6 필  리  핀    남          0    43
##  7 일      본    남          3   100
##  8 캄 보 디 아   남         10    44
##  9 몽      골    남        465  1681
## 10 인도네시아    남         26    62
## # ... with 167 more rows
…
